* commit 8d2c6f5dd5cbfc3a1485316c3d5891387990adfc
| Author: Zzejie <809533214@qq.com>
| Date:   Wed Aug 26 11:47:23 2020 +0800
| 
|     world
|  
* commit e22d628aad977eca5096c2dc1c8c145f8995d7f1
| Author: Zzejie <809533214@qq.com>
| Date:   Wed Aug 26 11:41:52 2020 +0800
| 
|     hello
|    
| * commit 34d947ce4dc47fdedd9190431a044be24a1d84c0
| | Author: Zzejie <809533214@qq.com>
| | Date:   Wed Aug 26 11:39:04 2020 +0800
| | 
| |     hello world
| |   
| * commit f3aeedb2d170fd2262f59ac99ed3dc2039b494f6
|/  Author: Zzejie <809533214@qq.com>
|   Date:   Wed Aug 26 11:36:27 2020 +0800
|   
|       hello
|  
* commit 0e63baf622a2071f9b5c5b9e4b1156b616c5a66a
| Author: Zzejie <809533214@qq.com>
| Date:   Wed Aug 26 11:32:09 2020 +0800
| 
|     test
|  
* commit 18f3613cda7a989d8756f4ae110fba4c400b8e00
| Author: Zzejie <809533214@qq.com>
| Date:   Wed Aug 26 11:30:40 2020 +0800
| 
|     test
|  
* commit 200af5bf0889e537a88d41742924c701aa107491
  Author: Zzejie <809533214@qq.com>
  Date:   Wed Aug 26 01:38:56 2020 +0000
  
      Initial commit
ssh-keygen -t rsa -C "809533214@qq.com"
cd ~/.ssh
ls
cat id_rsa.pub
ssh -T git@gitlab.com
cd /root/
ls
mkdir gitlab
cd gitlab/
ls
git config --global user.email "809533214@qq.com"
git config --global user.name "Zzejie"
git init
ls
ll
git clone git@gitlab.com:zzjmodo/zzjmodo.git
ls
cd zzjmodo/
ls
mkdir test
cd test/
vi hello.c
ls
vi hello.cpp
ls
git add hello.cpp 
git commit hello.cpp "test"
git commit hello.cpp 
vi hello.cpp
git add hello.cpp 
git log
vi hello.cpp
git commit hello.cpp 
git add .
git commit
git commit -m "test"
git log
vi hello.cpp
git commit hello.cpp -m "test"
git log
git history
git push
git pull
git branch hello
vi hello.cpp 
git commit hello.cpp -m "hello"
git push
git branch
vi hello.cpp 
git commit hello.cpp -m "hello world"
git add .
git commit hello.cpp -m "hello world"
git push
git checkout hello
vi hello.cpp 
git add .
git commit hello.cpp -m "hello"
git push
git branch
vi hello.cpp 
git push origin hello
git branch world
git checkout world
vi hello.cpp 
git add .
git commit hello.cpp -m "world"
git push
git push origin world
git log --help
git log --graph --all
git log --graph --all > mylog.txt
ls
git commit -am"history"
git branch 
git checkout master
git add mylog.txt 
git commit mylog.txt -m "history" 
git push
mv mylog.txt ../
ls
git push branch master
git push origin master
git pull
ls
cd ..
ls
git branch
git add mylog.txt 
git commit mylog.txt -m "history" 
git push
history mylog.txt 
history --help
history -a mylog.txt 
